Ayaa Asoba, Julia Coelho, Ting Huang stat253_project – Ting-Chien Huang
…
Rows: 16013 Columns: 67
── Column specification ────────────────────────────────────────────────────────
Delimiter: ","
chr  (4): Country Name, Country Code, Indicator Name, Indicator Code
dbl (62): 1960, 1961, 1962, 1963, 1964, 1965, 1966, 1967, 1968, 1969, 1970, ...
lgl  (1): ...67

ℹ Use `spec()` to retrieve the full column specification for this data.
ℹ Specify the column types or set `show_col_types = FALSE` to quiet this message.

esgdata %>% distinct(`Indicator Name`,`Indicator Code`)

# A tibble: 67 × 2
   `Indicator Name`                                             `Indicator Code`
   <chr>                                                        <chr>           
 1 Access to clean fuels and technologies for cooking (% of po… EG.CFT.ACCS.ZS  
 2 Access to electricity (% of population)                      EG.ELC.ACCS.ZS  
 3 Adjusted savings: natural resources depletion (% of GNI)     NY.ADJ.DRES.GN.…
 4 Adjusted savings: net forest depletion (% of GNI)            NY.ADJ.DFOR.GN.…
 5 Agricultural land (% of land area)                           AG.LND.AGRI.ZS  
 6 Agriculture, forestry, and fishing, value added (% of GDP)   NV.AGR.TOTL.ZS  
 7 Annual freshwater withdrawals, total (% of internal resourc… ER.H2O.FWTL.ZS  
 8 Annualized average growth rate in per capita real survey me… SI.SPR.PCAP.ZG  
 9 Cause of death, by communicable diseases and maternal, pren… SH.DTH.COMM.ZS  
10 Children in employment, total (% of children ages 7-14)      SL.TLF.0714.ZS  
# ℹ 57 more rows
…
$schoolEnroll
[1] 0

esgdata_cv10 <- vfold_cv(esgdataAll_sub, v = 10)  # 6 folds
data_rec <- recipe(co2 ~ . , data = esgdataAll_sub) %>%
  update_role(`CountryCode`,new_role = 'ID') %>%
  update_role(`CountryName`,new_role = 'ID') %>%
    step_nzv(all_predictors()) %>% # removes variables with the same value
    step_normalize(all_numeric_predictors()) %>%  # important standardization step for LASSO
    step_dummy(all_nominal_predictors())  # creates indicator variables for categorical variables
data_rec %>% prep(esgdataAll_sub) %>%juice()

# A tibble: 713 × 20
   CountryCode CountryName    Year electricity agroLand agroValue
   <fct>       <fct>         <dbl>       <dbl>    <dbl>     <dbl>
 1 ALB         Albania     -0.0415     0.291    -0.0194    1.94  
 2 ARG         Argentina   -2.77      -0.304     0.170     0.0142
 3 ARG         Argentina   -2.32      -0.238     0.173    -0.0472
 4 ARG         Argentina   -1.86      -0.174     0.176    -0.145 
 5 ARG         Argentina   -1.41      -0.112     0.180     0.802 
 6 ARG         Argentina   -1.18      -0.0831    0.220     0.823 
 7 ARG         Argentina   -0.952     -0.0548    0.285     0.486 
 8 ARG         Argentina   -0.724     -0.0278    0.349     0.413 
 9 ARG         Argentina   -0.497     -0.00166   0.410     0.241 
10 ARG         Argentina   -0.269      0.0241    0.464     0.330 
# ℹ 703 more rows
# ℹ 14 more variables: energyIntensity <dbl>, forestArea <dbl>,
#   fossilFuel <dbl>, gini <dbl>, govtEfficacy <dbl>, incomeLowest20 <dbl>,
#   internet <dbl>, lifeExpectancy <dbl>, popDensity <dbl>,
#   renewableElec <dbl>, renewableEnergy <dbl>, research <dbl>,
#   schoolEnroll <dbl>, co2 <dbl>
Regression Models

Linear Model Recipe

esg_rec <- recipe(co2 ~ . , data = esgdataAll_sub) %>%
  update_role(`Year`,new_role = 'ID') %>%
  update_role(`CountryCode`,new_role = 'ID') %>%
  update_role(`CountryName`,new_role = 'ID') %>%
    step_nzv(all_predictors()) %>% # removes variables with the same value
    step_normalize(all_numeric_predictors()) %>%  # important standardization step for LASSO
    step_dummy(all_nominal_predictors())  # creates indicator variables for categorical variables
    
esg_rec %>% prep(esgdataAll_sub) %>% juice()

# A tibble: 713 × 20
   CountryCode CountryName  Year electricity agroLand agroValue energyIntensity
   <fct>       <fct>       <dbl>       <dbl>    <dbl>     <dbl>           <dbl>
 1 ALB         Albania      2008     0.291    -0.0194    1.94            -0.640
 2 ARG         Argentina    1996    -0.304     0.170     0.0142          -0.324
 3 ARG         Argentina    1998    -0.238     0.173    -0.0472          -0.388
 4 ARG         Argentina    2000    -0.174     0.176    -0.145           -0.298
 5 ARG         Argentina    2002    -0.112     0.180     0.802           -0.186
 6 ARG         Argentina    2003    -0.0831    0.220     0.823           -0.210
 7 ARG         Argentina    2004    -0.0548    0.285     0.486           -0.207
 8 ARG         Argentina    2005    -0.0278    0.349     0.413           -0.314
 9 ARG         Argentina    2006    -0.00166   0.410     0.241           -0.306
10 ARG         Argentina    2007     0.0241    0.464     0.330           -0.398
# ℹ 703 more rows
# ℹ 13 more variables: forestArea <dbl>, fossilFuel <dbl>, gini <dbl>,
#   govtEfficacy <dbl>, incomeLowest20 <dbl>, internet <dbl>,
#   lifeExpectancy <dbl>, popDensity <dbl>, renewableElec <dbl>,
#   renewableEnergy <dbl>, research <dbl>, schoolEnroll <dbl>, co2 <dbl>
…
rf_OOB_output <- function(fit_model, model_label, truth){
    tibble(
          .pred_class = fit_model %>% extract_fit_engine() %>% pluck('predictions'), #OOB predictions
          class = truth,
          model = model_label
      )
}
#check out the function output
rf_OOB_output(data_fit_mtry2,'mtry2', esgdataAll_sub %>% pull(CO2cat))

# A tibble: 713 × 3
   .pred_class class   model
   <fct>       <fct>   <chr>
 1 low_co2     low_co2 mtry2
 2 low_co2     low_co2 mtry2
 3 low_co2     low_co2 mtry2
 4 low_co2     low_co2 mtry2
 5 low_co2     low_co2 mtry2
 6 low_co2     low_co2 mtry2
 7 low_co2     low_co2 mtry2
 8 low_co2     low_co2 mtry2
 9 low_co2     low_co2 mtry2
10 low_co2     low_co2 mtry2
# ℹ 703 more rows
…
# A tibble: 4 × 6
  kclust_4   co2 govtEfficacy agroValue research renewableEnergy
  <fct>    <dbl>        <dbl>     <dbl>    <dbl>           <dbl>
1 1        10.5         1.71       1.64    2.46             22.4
2 2         1.03       -0.689     20.3     0.193            51.3
3 3         3.42       -0.107      7.82    0.441            20.6
4 4         7.85        0.823      2.82    1.01             10.3

esgdataAll_sub %>%
  count(kclust_4, CountryName)

# A tibble: 102 × 3
   kclust_4 CountryName        n
   <fct>    <chr>          <int>
 1 1        Australia          2
 2 1        Austria           14
 3 1        Belgium           14
 4 1        Canada             9
 5 1        Czech Republic     2
 6 1        Denmark           12
 7 1        Estonia            6
 8 1        Finland           14
 9 1        France            13
10 1        Germany           16
# ℹ 92 more rows
…
