Project Final Draft – Ting-Chien Huang
…
               coef exp(coef)   p-value
Sensor 3  4.884e-02 1.050e+00 8.850e-02
Sensor 4  2.257e-01 1.253e+00 2.980e-14
Sensor 9  5.505e-04 1.001e+00 8.455e-01
Sensor 11 6.036e+00 4.182e+02 1.250e-09
Sensor 17 5.157e-01 1.675e+00 4.470e-05

data1a = data1

data1a$s_9lag = c(NA, data1a$s_9[-nrow(data1a)])
data1a$s_9lag[which(!duplicated(data1a$unit_nr))] = NA

data1a

# A tibble: 20,631 × 31
# Groups:   unit_nr [100]
   unit_nr time_cycles altitude   mach   TRA   s_1   s_2   s_3   s_4   s_5   s_6
     <int>       <int>    <dbl>  <dbl> <dbl> <dbl> <dbl> <dbl> <dbl> <dbl> <dbl>
 1       1           1  -0.0007  -4e-4   100  519.  642. 1590. 1401.  14.6  21.6
 2       1           2   0.0019  -3e-4   100  519.  642. 1592. 1403.  14.6  21.6
 3       1           3  -0.0043   3e-4   100  519.  642. 1588. 1404.  14.6  21.6
 4       1           4   0.0007   0      100  519.  642. 1583. 1402.  14.6  21.6
 5       1           5  -0.0019  -2e-4   100  519.  642. 1583. 1406.  14.6  21.6
 6       1           6  -0.0043  -1e-4   100  519.  642. 1584. 1398.  14.6  21.6
 7       1           7   0.001    1e-4   100  519.  642. 1592. 1398.  14.6  21.6
 8       1           8  -0.0034   3e-4   100  519.  643. 1583. 1401.  14.6  21.6
 9       1           9   0.0008   1e-4   100  519.  642. 1591. 1395.  14.6  21.6
10       1          10  -0.0033   1e-4   100  519.  642. 1591. 1400.  14.6  21.6
# ℹ 20,621 more rows
# ℹ 20 more variables: s_7 <dbl>, s_8 <dbl>, s_9 <dbl>, s_10 <dbl>, s_11 <dbl>,
#   s_12 <dbl>, s_13 <dbl>, s_14 <dbl>, s_15 <dbl>, s_16 <dbl>, s_17 <int>,
#   s_18 <int>, s_19 <dbl>, s_20 <dbl>, s_21 <dbl>, max_cycle <int>, RUL <int>,
#   breakdown <dbl>, start <dbl>, s_9lag <dbl>
…
